%YAML 1.1
%TAG !u! tag:unity3d.com,2011:
--- !u!74 &7400000
AnimationClip:
  m_ObjectHideFlags: 0
  m_PrefabParentObject: {fileID: 0}
  m_PrefabInternal: {fileID: 0}
  m_Name: PopUp
  serializedVersion: 6
  m_Legacy: 1
  m_Compressed: 0
  m_UseHighQualityCurve: 1
  m_RotationCurves: []
  m_CompressedRotationCurves: []
  m_EulerCurves: []
  m_PositionCurves: []
  m_ScaleCurves:
  - curve:
      serializedVersion: 2
      m_Curve:
      - serializedVersion: 2
        time: 0
        value: {x: 0, y: 0, z: 0}
        inSlope: {x: 6.6, y: 5.3999996, z: 6}
        outSlope: {x: 6.6, y: 5.3999996, z: 6}
        tangentMode: 0
      - serializedVersion: 2
        time: 0.16666667
        value: {x: 1.1, y: 0.9, z: 1}
        inSlope: {x: 2.85, y: 3.1499996, z: 3}
        outSlope: {x: 2.85, y: 3.1499996, z: 3}
        tangentMode: 0
      - serializedVersion: 2
        time: 0.33333334
        value: {x: 0.95, y: 1.05, z: 1}
        inSlope: {x: -0.30000007, y: 0.30000007, z: 0}
        outSlope: {x: -0.30000007, y: 0.30000007, z: 0}
        tangentMode: 32
      - serializedVersion: 2
        time: 0.5
        value: {x: 1, y: 1, z: 1}
        inSlope: {x: 0, y: 0, z: 0}
        outSlope: {x: 0, y: 0, z: 0}
        tangentMode: 0
      m_PreInfinity: 2
      m_PostInfinity: 2
      m_RotationOrder: 4
    path: Base
  m_FloatCurves: []
  m_PPtrCurves: []
  m_SampleRate: 30
  m_WrapMode: 0
  m_Bounds:
    m_Center: {x: 0, y: 0, z: 0}
    m_Extent: {x: 0, y: 0, z: 0}
  m_ClipBindingConstant:
    genericBindings: []
    pptrCurveMapping: []
  m_AnimationClipSettings:
    serializedVersion: 2
    m_AdditiveReferencePoseClip: {fileID: 0}
    m_AdditiveReferencePoseTime: 0
    m_StartTime: 0
    m_StopTime: 0.5
    m_OrientationOffsetY: 0
    m_Level: 0
    m_CycleOffset: 0
    m_HasAdditiveReferencePose: 0
    m_LoopTime: 0
    m_LoopBlend: 0
    m_LoopBlendOrientation: 0
    m_LoopBlendPositionY: 0
    m_LoopBlendPositionXZ: 0
    m_KeepOriginalOrientation: 0
    m_KeepOriginalPositionY: 1
    m_KeepOriginalPositionXZ: 0
    m_HeightFromFeet: 0
    m_Mirror: 0
  m_EditorCurves:
  - curve:
      serializedVersion: 2
      m_Curve:
      - serializedVersion: 2
        time: 0
        value: 0
        inSlope: 6.6
        outSlope: 6.6
        tangentMode: 34
      - serializedVersion: 2
        time: 0.16666667
        value: 1.1
        inSlope: 2.85
        outSlope: 2.85
        tangentMode: 34
      - serializedVersion: 2
        time: 0.33333334
        value: 0.95
        inSlope: -0.30000007
        outSlope: -0.30000007
        tangentMode: 34
      - serializedVersion: 2
        time: 0.5
        value: 1
        inSlope: 0
        outSlope: 0
        tangentMode: 0
      m_PreInfinity: 2
      m_PostInfinity: 2
      m_RotationOrder: 4
    attribute: m_LocalScale.x
    path: Base
    classID: 224
    script: {fileID: 0}
  - curve:
      serializedVersion: 2
      m_Curve:
      - serializedVersion: 2
        time: 0
        value: 0
        inSlope: 5.3999996
        outSlope: 5.3999996
        tangentMode: 34
      - serializedVersion: 2
        time: 0.16666667
        value: 0.9
        inSlope: 3.1499996
        outSlope: 3.1499996
        tangentMode: 34
      - serializedVersion: 2
        time: 0.33333334
        value: 1.05
        inSlope: 0.30000007
        outSlope: 0.30000007
        tangentMode: 34
      - serializedVersion: 2
        time: 0.5
        value: 1
        inSlope: 0
        outSlope: 0
        tangentMode: 0
      m_PreInfinity: 2
      m_PostInfinity: 2
      m_RotationOrder: 4
    attribute: m_LocalScale.y
    path: Base
    classID: 224
    script: {fileID: 0}
  - curve:
      serializedVersion: 2
      m_Curve:
      - serializedVersion: 2
        time: 0
        value: 0
        inSlope: 6
        outSlope: 6
        tangentMode: 34
      - serializedVersion: 2
        time: 0.16666667
        value: 1
        inSlope: 3
        outSlope: 3
        tangentMode: 34
      - serializedVersion: 2
        time: 0.33333334
        value: 1
        inSlope: 0
        outSlope: 0
        tangentMode: 34
      - serializedVersion: 2
        time: 0.5
        value: 1
        inSlope: 0
        outSlope: 0
        tangentMode: 0
      m_PreInfinity: 2
      m_PostInfinity: 2
      m_RotationOrder: 4
    attribute: m_LocalScale.z
    path: Base
    classID: 224
    script: {fileID: 0}
  m_EulerEditorCurves: []
  m_HasGenericRootTransform: 0
  m_HasMotionFloatCurves: 0
  m_GenerateMotionCurves: 0
  m_Events: []
