%YAML 1.1
%TAG !u! tag:unity3d.com,2011:
--- !u!74 &7400000
AnimationClip:
  m_ObjectHideFlags: 0
  m_PrefabParentObject: {fileID: 0}
  m_PrefabInternal: {fileID: 0}
  m_Name: TimerAnimatedTimeUp
  serializedVersion: 6
  m_Legacy: 1
  m_Compressed: 0
  m_UseHighQualityCurve: 1
  m_RotationCurves:
  - curve:
      serializedVersion: 2
      m_Curve:
      - serializedVersion: 2
        time: 0
        value: {x: -0, y: -0, z: -0, w: -1}
        inSlope: {x: 0, y: 0, z: -0.2722704, w: 0.00061869615}
        outSlope: {x: 0, y: 0, z: -0.2722704, w: 0.00061869615}
        tangentMode: 0
      - serializedVersion: 2
        time: 0.016666668
        value: {x: -0, y: -0, z: -0.0045378404, w: -0.9999897}
        inSlope: {x: 0, y: 0, z: -0.4607488, w: 0.0035387275}
        outSlope: {x: 0, y: 0, z: -0.4607488, w: 0.0035387275}
        tangentMode: 0
      - serializedVersion: 2
        time: 0.033333335
        value: {x: -0, y: -0, z: -0.015358293, w: -0.99988204}
        inSlope: {x: 0, y: 0, z: -0.7119817, w: 0.011681913}
        outSlope: {x: 0, y: 0, z: -0.7119817, w: 0.011681913}
        tangentMode: 0
      - serializedVersion: 2
        time: 0.050000004
        value: {x: -0, y: -0, z: -0.028270567, w: -0.9996003}
        inSlope: {x: 0, y: 0, z: -0.71181357, w: 0.019385219}
        outSlope: {x: 0, y: 0, z: -0.71181357, w: 0.019385219}
        tangentMode: 0
      - serializedVersion: 2
        time: 0.06666667
        value: {x: -0, y: -0, z: -0.039085414, w: -0.99923587}
        inSlope: {x: 0, y: 0, z: -0.46046466, w: 0.016561748}
        outSlope: {x: 0, y: 0, z: -0.46046466, w: 0.016561748}
        tangentMode: 0
      - serializedVersion: 2
        time: 0.083333336
        value: {x: -0, y: -0, z: -0.043619387, w: -0.99904823}
        inSlope: {x: 0, y: 0, z: 1.2196863, w: -0.022886397}
        outSlope: {x: 0, y: 0, z: 1.2196863, w: -0.022886397}
        tangentMode: 0
      - serializedVersion: 2
        time: 0.1
        value: {x: -0, y: -0, z: 0.0015707945, w: -0.99999875}
        inSlope: {x: 0, y: 0, z: 5.0270176, w: 0.20278575}
        outSlope: {x: 0, y: 0, z: 5.0270176, w: 0.20278575}
        tangentMode: 0
      - serializedVersion: 2
        time: 0.11666667
        value: {x: -0, y: -0, z: 0.12394785, w: -0.9922887}
        inSlope: {x: 0, y: 0, z: 8.964063, w: 1.3853068}
        outSlope: {x: 0, y: 0, z: 8.964063, w: 1.3853068}
        tangentMode: 0
      - serializedVersion: 2
        time: 0.13333334
        value: {x: -0, y: -0, z: 0.30037296, w: -0.95382184}
        inSlope: {x: 0, y: 0, z: 11.3087635, w: 3.8036222}
        outSlope: {x: 0, y: 0, z: 11.3087635, w: 3.8036222}
        tangentMode: 0
      - serializedVersion: 2
        time: 0.15
        value: {x: -0, y: -0, z: 0.5009067, w: -0.8655013}
        inSlope: {x: 0, y: 0, z: 11.734205, w: 6.943739}
        outSlope: {x: 0, y: 0, z: 11.734205, w: 6.943739}
        tangentMode: 0
      - serializedVersion: 2
        time: 0.16666667
        value: {x: -0, y: -0, z: 0.6915131, w: -0.7223639}
        inSlope: {x: 0, y: 0, z: 10.257649, w: 9.819565}
        outSlope: {x: 0, y: 0, z: 10.257649, w: 9.819565}
        tangentMode: 0
      - serializedVersion: 2
        time: 0.18333334
        value: {x: -0, y: -0, z: 0.84282833, w: -0.5381825}
        inSlope: {x: 0, y: 0, z: 7.448967, w: 11.4201565}
        outSlope: {x: 0, y: 0, z: 7.448967, w: 11.4201565}
        tangentMode: 0
      - serializedVersion: 2
        time: 0.2
        value: {x: -0, y: -0, z: 0.939812, w: -0.34169203}
        inSlope: {x: 0, y: 0, z: 4.2932835, w: 11.132086}
        outSlope: {x: 0, y: 0, z: 4.2932835, w: 11.132086}
        tangentMode: 0
      - serializedVersion: 2
        time: 0.21666667
        value: {x: -0, y: -0, z: 0.9859378, w: -0.16711299}
        inSlope: {x: 0, y: 0, z: 1.7749949, w: 8.8951}
        outSlope: {x: 0, y: 0, z: 1.7749949, w: 8.8951}
        tangentMode: 0
      - serializedVersion: 2
        time: 0.23333333
        value: {x: -0, y: -0, z: 0.9989785, w: -0.045188725}
        inSlope: {x: 0, y: 0, z: 0.4218668, w: 5.0133915}
        outSlope: {x: 0, y: 0, z: 0.4218668, w: 5.0133915}
        tangentMode: 0
      - serializedVersion: 2
        time: 0.25
        value: {x: -0, y: -0, z: 1, w: 0.00000004371139}
        inSlope: {x: 0, y: 0, z: 0.061290268, w: 2.7113264}
        outSlope: {x: 0, y: 0, z: 0.061290268, w: 2.7113264}
        tangentMode: 0
      m_PreInfinity: 2
      m_PostInfinity: 2
      m_RotationOrder: 4
    path: 
  m_CompressedRotationCurves: []
  m_EulerCurves: []
  m_PositionCurves: []
  m_ScaleCurves:
  - curve:
      serializedVersion: 2
      m_Curve:
      - serializedVersion: 2
        time: 0
        value: {x: 0.5, y: 0, z: 1}
        inSlope: {x: 0, y: 0, z: 0}
        outSlope: {x: 0, y: 0, z: 0}
        tangentMode: 603693057
      - serializedVersion: 2
        time: 0.083333336
        value: {x: 0.5, y: 0, z: 1}
        inSlope: {x: 0, y: 0, z: 0}
        outSlope: {x: 0, y: 0, z: 0}
        tangentMode: 0
      m_PreInfinity: 2
      m_PostInfinity: 2
      m_RotationOrder: 4
    path: SandFlow
  m_FloatCurves:
  - curve:
      serializedVersion: 2
      m_Curve:
      - serializedVersion: 2
        time: 0
        value: 0
        inSlope: 0
        outSlope: 0
        tangentMode: 34
      - serializedVersion: 2
        time: 0.083333336
        value: 0
        inSlope: 0
        outSlope: 0
        tangentMode: 34
      m_PreInfinity: 2
      m_PostInfinity: 2
      m_RotationOrder: 4
    attribute: m_AnchoredPosition.y
    path: GlassBottomMask/Sand
    classID: 224
    script: {fileID: 0}
  - curve:
      serializedVersion: 2
      m_Curve:
      - serializedVersion: 2
        time: 0
        value: -98.7
        inSlope: 0
        outSlope: 0
        tangentMode: 34
      - serializedVersion: 2
        time: 0.083333336
        value: -98.7
        inSlope: 0
        outSlope: 0
        tangentMode: 34
      m_PreInfinity: 2
      m_PostInfinity: 2
      m_RotationOrder: 4
    attribute: m_AnchoredPosition.y
    path: GlassTopMask/Sand
    classID: 224
    script: {fileID: 0}
  - curve:
      serializedVersion: 2
      m_Curve:
      - serializedVersion: 2
        time: 0
        value: -40
        inSlope: 0
        outSlope: 0
        tangentMode: 34
      - serializedVersion: 2
        time: 0.083333336
        value: -40
        inSlope: 0
        outSlope: 0
        tangentMode: 34
      m_PreInfinity: 2
      m_PostInfinity: 2
      m_RotationOrder: 4
    attribute: m_AnchoredPosition.y
    path: SandFlow
    classID: 224
    script: {fileID: 0}
  m_PPtrCurves: []
  m_SampleRate: 60
  m_WrapMode: 0
  m_Bounds:
    m_Center: {x: 0, y: 0, z: 0}
    m_Extent: {x: 0, y: 0, z: 0}
  m_ClipBindingConstant:
    genericBindings: []
    pptrCurveMapping: []
  m_AnimationClipSettings:
    serializedVersion: 2
    m_AdditiveReferencePoseClip: {fileID: 0}
    m_AdditiveReferencePoseTime: 0
    m_StartTime: 0
    m_StopTime: 0.25
    m_OrientationOffsetY: 0
    m_Level: 0
    m_CycleOffset: 0
    m_HasAdditiveReferencePose: 0
    m_LoopTime: 0
    m_LoopBlend: 0
    m_LoopBlendOrientation: 0
    m_LoopBlendPositionY: 0
    m_LoopBlendPositionXZ: 0
    m_KeepOriginalOrientation: 0
    m_KeepOriginalPositionY: 1
    m_KeepOriginalPositionXZ: 0
    m_HeightFromFeet: 0
    m_Mirror: 0
  m_EditorCurves:
  - curve:
      serializedVersion: 2
      m_Curve:
      - serializedVersion: 2
        time: 0
        value: 0
        inSlope: 0
        outSlope: 0
        tangentMode: 34
      - serializedVersion: 2
        time: 0.083333336
        value: 0
        inSlope: 0
        outSlope: 0
        tangentMode: 34
      m_PreInfinity: 2
      m_PostInfinity: 2
      m_RotationOrder: 4
    attribute: m_AnchoredPosition.y
    path: GlassBottomMask/Sand
    classID: 224
    script: {fileID: 0}
  - curve:
      serializedVersion: 2
      m_Curve:
      - serializedVersion: 2
        time: 0
        value: -98.7
        inSlope: 0
        outSlope: 0
        tangentMode: 34
      - serializedVersion: 2
        time: 0.083333336
        value: -98.7
        inSlope: 0
        outSlope: 0
        tangentMode: 34
      m_PreInfinity: 2
      m_PostInfinity: 2
      m_RotationOrder: 4
    attribute: m_AnchoredPosition.y
    path: GlassTopMask/Sand
    classID: 224
    script: {fileID: 0}
  - curve:
      serializedVersion: 2
      m_Curve:
      - serializedVersion: 2
        time: 0
        value: 0.5
        inSlope: 0
        outSlope: 0
        tangentMode: 34
      - serializedVersion: 2
        time: 0.083333336
        value: 0.5
        inSlope: 0
        outSlope: 0
        tangentMode: 34
      m_PreInfinity: 2
      m_PostInfinity: 2
      m_RotationOrder: 4
    attribute: m_LocalScale.x
    path: SandFlow
    classID: 224
    script: {fileID: 0}
  - curve:
      serializedVersion: 2
      m_Curve:
      - serializedVersion: 2
        time: 0
        value: 0
        inSlope: 0
        outSlope: 0
        tangentMode: 0
      - serializedVersion: 2
        time: 0.083333336
        value: 0
        inSlope: 0
        outSlope: 0
        tangentMode: 0
      m_PreInfinity: 2
      m_PostInfinity: 2
      m_RotationOrder: 4
    attribute: m_LocalScale.y
    path: SandFlow
    classID: 224
    script: {fileID: 0}
  - curve:
      serializedVersion: 2
      m_Curve:
      - serializedVersion: 2
        time: 0
        value: 1
        inSlope: 0
        outSlope: 0
        tangentMode: 34
      - serializedVersion: 2
        time: 0.083333336
        value: 1
        inSlope: 0
        outSlope: 0
        tangentMode: 34
      m_PreInfinity: 2
      m_PostInfinity: 2
      m_RotationOrder: 4
    attribute: m_LocalScale.z
    path: SandFlow
    classID: 224
    script: {fileID: 0}
  - curve:
      serializedVersion: 2
      m_Curve:
      - serializedVersion: 2
        time: 0
        value: -40
        inSlope: 0
        outSlope: 0
        tangentMode: 34
      - serializedVersion: 2
        time: 0.083333336
        value: -40
        inSlope: 0
        outSlope: 0
        tangentMode: 34
      m_PreInfinity: 2
      m_PostInfinity: 2
      m_RotationOrder: 4
    attribute: m_AnchoredPosition.y
    path: SandFlow
    classID: 224
    script: {fileID: 0}
  - curve:
      serializedVersion: 2
      m_Curve:
      - serializedVersion: 2
        time: 0
        value: -0
        inSlope: 0
        outSlope: 0
        tangentMode: 0
      - serializedVersion: 2
        time: 0.016666668
        value: -0
        inSlope: 0
        outSlope: 0
        tangentMode: 0
      - serializedVersion: 2
        time: 0.033333335
        value: -0
        inSlope: 0
        outSlope: 0
        tangentMode: 0
      - serializedVersion: 2
        time: 0.050000004
        value: -0
        inSlope: 0
        outSlope: 0
        tangentMode: 0
      - serializedVersion: 2
        time: 0.06666667
        value: -0
        inSlope: 0
        outSlope: 0
        tangentMode: 0
      - serializedVersion: 2
        time: 0.083333336
        value: -0
        inSlope: 0
        outSlope: 0
        tangentMode: 0
      - serializedVersion: 2
        time: 0.1
        value: -0
        inSlope: 0
        outSlope: 0
        tangentMode: 0
      - serializedVersion: 2
        time: 0.11666667
        value: -0
        inSlope: 0
        outSlope: 0
        tangentMode: 0
      - serializedVersion: 2
        time: 0.13333334
        value: -0
        inSlope: 0
        outSlope: 0
        tangentMode: 0
      - serializedVersion: 2
        time: 0.15
        value: -0
        inSlope: 0
        outSlope: 0
        tangentMode: 0
      - serializedVersion: 2
        time: 0.16666667
        value: -0
        inSlope: 0
        outSlope: 0
        tangentMode: 0
      - serializedVersion: 2
        time: 0.18333334
        value: -0
        inSlope: 0
        outSlope: 0
        tangentMode: 0
      - serializedVersion: 2
        time: 0.2
        value: -0
        inSlope: 0
        outSlope: 0
        tangentMode: 0
      - serializedVersion: 2
        time: 0.21666667
        value: -0
        inSlope: 0
        outSlope: 0
        tangentMode: 0
      - serializedVersion: 2
        time: 0.23333333
        value: -0
        inSlope: 0
        outSlope: 0
        tangentMode: 0
      - serializedVersion: 2
        time: 0.25
        value: -0
        inSlope: 0
        outSlope: 0
        tangentMode: 0
      m_PreInfinity: 2
      m_PostInfinity: 2
      m_RotationOrder: 4
    attribute: m_LocalRotation.x
    path: 
    classID: 224
    script: {fileID: 0}
  - curve:
      serializedVersion: 2
      m_Curve:
      - serializedVersion: 2
        time: 0
        value: -0
        inSlope: 0
        outSlope: 0
        tangentMode: 0
      - serializedVersion: 2
        time: 0.016666668
        value: -0
        inSlope: 0
        outSlope: 0
        tangentMode: 0
      - serializedVersion: 2
        time: 0.033333335
        value: -0
        inSlope: 0
        outSlope: 0
        tangentMode: 0
      - serializedVersion: 2
        time: 0.050000004
        value: -0
        inSlope: 0
        outSlope: 0
        tangentMode: 0
      - serializedVersion: 2
        time: 0.06666667
        value: -0
        inSlope: 0
        outSlope: 0
        tangentMode: 0
      - serializedVersion: 2
        time: 0.083333336
        value: -0
        inSlope: 0
        outSlope: 0
        tangentMode: 0
      - serializedVersion: 2
        time: 0.1
        value: -0
        inSlope: 0
        outSlope: 0
        tangentMode: 0
      - serializedVersion: 2
        time: 0.11666667
        value: -0
        inSlope: 0
        outSlope: 0
        tangentMode: 0
      - serializedVersion: 2
        time: 0.13333334
        value: -0
        inSlope: 0
        outSlope: 0
        tangentMode: 0
      - serializedVersion: 2
        time: 0.15
        value: -0
        inSlope: 0
        outSlope: 0
        tangentMode: 0
      - serializedVersion: 2
        time: 0.16666667
        value: -0
        inSlope: 0
        outSlope: 0
        tangentMode: 0
      - serializedVersion: 2
        time: 0.18333334
        value: -0
        inSlope: 0
        outSlope: 0
        tangentMode: 0
      - serializedVersion: 2
        time: 0.2
        value: -0
        inSlope: 0
        outSlope: 0
        tangentMode: 0
      - serializedVersion: 2
        time: 0.21666667
        value: -0
        inSlope: 0
        outSlope: 0
        tangentMode: 0
      - serializedVersion: 2
        time: 0.23333333
        value: -0
        inSlope: 0
        outSlope: 0
        tangentMode: 0
      - serializedVersion: 2
        time: 0.25
        value: -0
        inSlope: 0
        outSlope: 0
        tangentMode: 0
      m_PreInfinity: 2
      m_PostInfinity: 2
      m_RotationOrder: 4
    attribute: m_LocalRotation.y
    path: 
    classID: 224
    script: {fileID: 0}
  - curve:
      serializedVersion: 2
      m_Curve:
      - serializedVersion: 2
        time: 0
        value: -0
        inSlope: -0.2722704
        outSlope: -0.2722704
        tangentMode: 0
      - serializedVersion: 2
        time: 0.016666668
        value: -0.0045378404
        inSlope: -0.4607488
        outSlope: -0.4607488
        tangentMode: 0
      - serializedVersion: 2
        time: 0.033333335
        value: -0.015358293
        inSlope: -0.7119817
        outSlope: -0.7119817
        tangentMode: 0
      - serializedVersion: 2
        time: 0.050000004
        value: -0.028270567
        inSlope: -0.71181357
        outSlope: -0.71181357
        tangentMode: 0
      - serializedVersion: 2
        time: 0.06666667
        value: -0.039085414
        inSlope: -0.46046466
        outSlope: -0.46046466
        tangentMode: 0
      - serializedVersion: 2
        time: 0.083333336
        value: -0.043619387
        inSlope: 1.2196863
        outSlope: 1.2196863
        tangentMode: 0
      - serializedVersion: 2
        time: 0.1
        value: 0.0015707945
        inSlope: 5.0270176
        outSlope: 5.0270176
        tangentMode: 0
      - serializedVersion: 2
        time: 0.11666667
        value: 0.12394785
        inSlope: 8.964063
        outSlope: 8.964063
        tangentMode: 0
      - serializedVersion: 2
        time: 0.13333334
        value: 0.30037296
        inSlope: 11.3087635
        outSlope: 11.3087635
        tangentMode: 0
      - serializedVersion: 2
        time: 0.15
        value: 0.5009067
        inSlope: 11.734205
        outSlope: 11.734205
        tangentMode: 0
      - serializedVersion: 2
        time: 0.16666667
        value: 0.6915131
        inSlope: 10.257649
        outSlope: 10.257649
        tangentMode: 0
      - serializedVersion: 2
        time: 0.18333334
        value: 0.84282833
        inSlope: 7.448967
        outSlope: 7.448967
        tangentMode: 0
      - serializedVersion: 2
        time: 0.2
        value: 0.939812
        inSlope: 4.2932835
        outSlope: 4.2932835
        tangentMode: 0
      - serializedVersion: 2
        time: 0.21666667
        value: 0.9859378
        inSlope: 1.7749949
        outSlope: 1.7749949
        tangentMode: 0
      - serializedVersion: 2
        time: 0.23333333
        value: 0.9989785
        inSlope: 0.4218668
        outSlope: 0.4218668
        tangentMode: 0
      - serializedVersion: 2
        time: 0.25
        value: 1
        inSlope: 0.061290268
        outSlope: 0.061290268
        tangentMode: 0
      m_PreInfinity: 2
      m_PostInfinity: 2
      m_RotationOrder: 4
    attribute: m_LocalRotation.z
    path: 
    classID: 224
    script: {fileID: 0}
  - curve:
      serializedVersion: 2
      m_Curve:
      - serializedVersion: 2
        time: 0
        value: -1
        inSlope: 0.00061869615
        outSlope: 0.00061869615
        tangentMode: 0
      - serializedVersion: 2
        time: 0.016666668
        value: -0.9999897
        inSlope: 0.0035387275
        outSlope: 0.0035387275
        tangentMode: 0
      - serializedVersion: 2
        time: 0.033333335
        value: -0.99988204
        inSlope: 0.011681913
        outSlope: 0.011681913
        tangentMode: 0
      - serializedVersion: 2
        time: 0.050000004
        value: -0.9996003
        inSlope: 0.019385219
        outSlope: 0.019385219
        tangentMode: 0
      - serializedVersion: 2
        time: 0.06666667
        value: -0.99923587
        inSlope: 0.016561748
        outSlope: 0.016561748
        tangentMode: 0
      - serializedVersion: 2
        time: 0.083333336
        value: -0.99904823
        inSlope: -0.022886397
        outSlope: -0.022886397
        tangentMode: 0
      - serializedVersion: 2
        time: 0.1
        value: -0.99999875
        inSlope: 0.20278575
        outSlope: 0.20278575
        tangentMode: 0
      - serializedVersion: 2
        time: 0.11666667
        value: -0.9922887
        inSlope: 1.3853068
        outSlope: 1.3853068
        tangentMode: 0
      - serializedVersion: 2
        time: 0.13333334
        value: -0.95382184
        inSlope: 3.8036222
        outSlope: 3.8036222
        tangentMode: 0
      - serializedVersion: 2
        time: 0.15
        value: -0.8655013
        inSlope: 6.943739
        outSlope: 6.943739
        tangentMode: 0
      - serializedVersion: 2
        time: 0.16666667
        value: -0.7223639
        inSlope: 9.819565
        outSlope: 9.819565
        tangentMode: 0
      - serializedVersion: 2
        time: 0.18333334
        value: -0.5381825
        inSlope: 11.4201565
        outSlope: 11.4201565
        tangentMode: 0
      - serializedVersion: 2
        time: 0.2
        value: -0.34169203
        inSlope: 11.132086
        outSlope: 11.132086
        tangentMode: 0
      - serializedVersion: 2
        time: 0.21666667
        value: -0.16711299
        inSlope: 8.8951
        outSlope: 8.8951
        tangentMode: 0
      - serializedVersion: 2
        time: 0.23333333
        value: -0.045188725
        inSlope: 5.0133915
        outSlope: 5.0133915
        tangentMode: 0
      - serializedVersion: 2
        time: 0.25
        value: 0.00000004371139
        inSlope: 2.7113264
        outSlope: 2.7113264
        tangentMode: 0
      m_PreInfinity: 2
      m_PostInfinity: 2
      m_RotationOrder: 4
    attribute: m_LocalRotation.w
    path: 
    classID: 224
    script: {fileID: 0}
  m_EulerEditorCurves:
  - curve:
      serializedVersion: 2
      m_Curve:
      - serializedVersion: 2
        time: 0
        value: 0
        inSlope: 0
        outSlope: 0
        tangentMode: 34
      - serializedVersion: 2
        time: 0.083333336
        value: 0
        inSlope: 0
        outSlope: 0
        tangentMode: 34
      - serializedVersion: 2
        time: 0.25
        value: 0
        inSlope: 0
        outSlope: 0
        tangentMode: 34
      m_PreInfinity: 2
      m_PostInfinity: 2
      m_RotationOrder: 4
    attribute: localEulerAnglesBaked.x
    path: 
    classID: 224
    script: {fileID: 0}
  - curve:
      serializedVersion: 2
      m_Curve:
      - serializedVersion: 2
        time: 0
        value: 0
        inSlope: 0
        outSlope: 0
        tangentMode: 34
      - serializedVersion: 2
        time: 0.083333336
        value: 0
        inSlope: 0
        outSlope: 0
        tangentMode: 34
      - serializedVersion: 2
        time: 0.25
        value: 0
        inSlope: 0
        outSlope: 0
        tangentMode: 34
      m_PreInfinity: 2
      m_PostInfinity: 2
      m_RotationOrder: 4
    attribute: localEulerAnglesBaked.y
    path: 
    classID: 224
    script: {fileID: 0}
  - curve:
      serializedVersion: 2
      m_Curve:
      - serializedVersion: 2
        time: 0
        value: 0
        inSlope: 0
        outSlope: 0
        tangentMode: 0
      - serializedVersion: 2
        time: 0.083333336
        value: 5
        inSlope: 0
        outSlope: 0
        tangentMode: 0
      - serializedVersion: 2
        time: 0.25
        value: -180
        inSlope: 0
        outSlope: 0
        tangentMode: 0
      m_PreInfinity: 2
      m_PostInfinity: 2
      m_RotationOrder: 4
    attribute: localEulerAnglesBaked.z
    path: 
    classID: 224
    script: {fileID: 0}
  m_HasGenericRootTransform: 0
  m_HasMotionFloatCurves: 0
  m_GenerateMotionCurves: 0
  m_Events: []
