%YAML 1.1
%TAG !u! tag:unity3d.com,2011:
--- !u!114 &11400000
MonoBehaviour:
  m_ObjectHideFlags: 0
  m_PrefabParentObject: {fileID: 0}
  m_PrefabInternal: {fileID: 0}
  m_GameObject: {fileID: 0}
  m_Enabled: 1
  m_EditorHideFlags: 0
  m_Script: {fileID: 11500000, guid: 4e682c8ea40236a45bc67f0537c17a86, type: 3}
  m_Name: InputConfig
  m_EditorClassIdentifier: 
  xboxMap: {fileID: 11400000, guid: 4c40b245e3c252c40a3680be48c941ae, type: 2}
  xboxNames: []
  maps:
  - names:
    - GAMECUBE
    map: {fileID: 11400000, guid: 848374d3b93e0c4479c6e7b865dc1769, type: 2}
    linuxMap: {fileID: 0}
    macMap: {fileID: 0}
  - names:
    - WIRELESS CONTROLLER
    map: {fileID: 11400000, guid: 8b53ac463eaa84043a7ec8a59263d875, type: 2}
    linuxMap: {fileID: 0}
    macMap: {fileID: 0}
  - names:
    - XBOX
    - RAZER
    map: {fileID: 11400000, guid: 4c40b245e3c252c40a3680be48c941ae, type: 2}
    linuxMap: {fileID: 11400000, guid: 3bd356c18480b7745b34ce2e179becba, type: 2}
    macMap: {fileID: 11400000, guid: e657f08da7ed0b242b9efeffa0b54b05, type: 2}
  defaultMap: {fileID: 11400000, guid: 8bf8af94db34f4b4c909c92659ac966f, type: 2}
  defaultControllerSprite: {fileID: 21300032, guid: 424681ce700218d4cb135fe59fc35195,
    type: 3}
  defaultAxisSprites:
  - axis: 0
    sprite: {fileID: 21300012, guid: 424681ce700218d4cb135fe59fc35195, type: 3}
  - axis: 1
    sprite: {fileID: 21300000, guid: 424681ce700218d4cb135fe59fc35195, type: 3}
  - axis: 2
    sprite: {fileID: 21300178, guid: 424681ce700218d4cb135fe59fc35195, type: 3}
  - axis: 3
    sprite: {fileID: 21300168, guid: 424681ce700218d4cb135fe59fc35195, type: 3}
  - axis: 4
    sprite: {fileID: 21300188, guid: 424681ce700218d4cb135fe59fc35195, type: 3}
  - axis: 5
    sprite: {fileID: 21300198, guid: 424681ce700218d4cb135fe59fc35195, type: 3}
  - axis: 6
    sprite: {fileID: 21300046, guid: 424681ce700218d4cb135fe59fc35195, type: 3}
  - axis: 7
    sprite: {fileID: 21300034, guid: 424681ce700218d4cb135fe59fc35195, type: 3}
  - axis: 8
    sprite: {fileID: 0}
  - axis: 9
    sprite: {fileID: 21300010, guid: 424681ce700218d4cb135fe59fc35195, type: 3}
  - axis: 10
    sprite: {fileID: 21300208, guid: 424681ce700218d4cb135fe59fc35195, type: 3}
  - axis: 11
    sprite: {fileID: 0}
