%YAML 1.1
%TAG !u! tag:unity3d.com,2011:
--- !u!1 &174584
GameObject:
  m_ObjectHideFlags: 0
  m_PrefabParentObject: {fileID: 0}
  m_PrefabInternal: {fileID: 100100000}
  serializedVersion: 5
  m_Component:
  - component: {fileID: 474584}
  - component: {fileID: 11474584}
  m_Layer: 0
  m_Name: Category12
  m_TagString: Untagged
  m_Icon: {fileID: 0}
  m_NavMeshLayer: 0
  m_StaticEditorFlags: 0
  m_IsActive: 1
--- !u!4 &474584
Transform:
  m_ObjectHideFlags: 1
  m_PrefabParentObject: {fileID: 0}
  m_PrefabInternal: {fileID: 100100000}
  m_GameObject: {fileID: 174584}
  m_LocalRotation: {x: 0, y: 0, z: 0, w: 1}
  m_LocalPosition: {x: 0, y: 0, z: 0}
  m_LocalScale: {x: 1, y: 1, z: 1}
  m_Children: []
  m_Father: {fileID: 0}
  m_RootOrder: 0
  m_LocalEulerAnglesHint: {x: 0, y: 0, z: 0}
--- !u!114 &11474584
MonoBehaviour:
  m_ObjectHideFlags: 1
  m_PrefabParentObject: {fileID: 0}
  m_PrefabInternal: {fileID: 100100000}
  m_GameObject: {fileID: 174584}
  m_Enabled: 1
  m_EditorHideFlags: 0
  m_Script: {fileID: 11500000, guid: 814527ed6b5820247a732f012786e2b7, type: 3}
  m_Name: 
  m_EditorClassIdentifier: 
  categoryName: Category 12
  categoryIcon: {fileID: 21300000, guid: d335848f45039ab41a828ff1eee6e9f7, type: 3}
  categoryColor: {r: 0.3137255, g: 0.54901963, b: 1, a: 1}
  questions:
  - question: Question 1
    image: {fileID: 0}
    sound: {fileID: 0}
    answers:
    - answer: Answer 1
      image: {fileID: 0}
      sound: {fileID: 0}
      isCorrect: 1
    - answer: Answer 2
      image: {fileID: 0}
      sound: {fileID: 0}
      isCorrect: 0
    - answer: Answer 3
      image: {fileID: 0}
      sound: {fileID: 0}
      isCorrect: 0
    - answer: Answer 4
      image: {fileID: 0}
      sound: {fileID: 0}
      isCorrect: 0
    followup: 
    bonus: 100
    time: 8
  - question: Question 2
    image: {fileID: 0}
    sound: {fileID: 0}
    answers:
    - answer: Answer 1
      image: {fileID: 0}
      sound: {fileID: 0}
      isCorrect: 1
    - answer: Answer 2
      image: {fileID: 0}
      sound: {fileID: 0}
      isCorrect: 0
    - answer: Answer 3
      image: {fileID: 0}
      sound: {fileID: 0}
      isCorrect: 0
    - answer: Answer 4
      image: {fileID: 0}
      sound: {fileID: 0}
      isCorrect: 0
    followup: 
    bonus: 100
    time: 8
  - question: Question 3
    image: {fileID: 0}
    sound: {fileID: 0}
    answers:
    - answer: Answer 1
      image: {fileID: 0}
      sound: {fileID: 0}
      isCorrect: 1
    - answer: Answer 2
      image: {fileID: 0}
      sound: {fileID: 0}
      isCorrect: 0
    - answer: Answer 3
      image: {fileID: 0}
      sound: {fileID: 0}
      isCorrect: 0
    - answer: Answer 4
      image: {fileID: 0}
      sound: {fileID: 0}
      isCorrect: 0
    followup: 
    bonus: 100
    time: 8
  - question: Question 4
    image: {fileID: 0}
    sound: {fileID: 0}
    answers:
    - answer: Answer 1
      image: {fileID: 0}
      sound: {fileID: 0}
      isCorrect: 1
    - answer: Answer 2
      image: {fileID: 0}
      sound: {fileID: 0}
      isCorrect: 0
    - answer: Answer 3
      image: {fileID: 0}
      sound: {fileID: 0}
      isCorrect: 0
    - answer: Answer 4
      image: {fileID: 0}
      sound: {fileID: 0}
      isCorrect: 0
    followup: 
    bonus: 100
    time: 8
  - question: Question 5
    image: {fileID: 0}
    sound: {fileID: 0}
    answers:
    - answer: Answer 1
      image: {fileID: 0}
      sound: {fileID: 0}
      isCorrect: 1
    - answer: Answer 2
      image: {fileID: 0}
      sound: {fileID: 0}
      isCorrect: 0
    - answer: Answer 3
      image: {fileID: 0}
      sound: {fileID: 0}
      isCorrect: 0
    - answer: Answer 4
      image: {fileID: 0}
      sound: {fileID: 0}
      isCorrect: 0
    followup: 
    bonus: 100
    time: 8
  subcategories: []
  updateSubcategories: 0
--- !u!1001 &100100000
Prefab:
  m_ObjectHideFlags: 1
  serializedVersion: 2
  m_Modification:
    m_TransformParent: {fileID: 0}
    m_Modifications: []
    m_RemovedComponents: []
  m_ParentPrefab: {fileID: 0}
  m_RootGameObject: {fileID: 174584}
  m_IsPrefabParent: 1
